place_id;place_name;place_type
1;Place nr 1;Bar
2;Place nr 2;Park
3;Place nr 3;Restaurant
4;Place nr 4;Theater
5;Place nr 5;Grocery shop
6;Place nr 6;Bar
7;Place nr 7;Mall
8;Place nr 8;Hospital
9;Place nr 9;Bar
10;Place nr 10;Theater
11;Place nr 11;Grocery shop
12;Place nr 12;Theater
13;Place nr 13;Restaurant
14;Place nr 14;Grocery shop
15;Place nr 15;Hospital
16;Place nr 16;Park
17;Place nr 17;Hospital
18;Place nr 18;School
19;Place nr 19;Grocery shop
20;Place nr 20;Grocery shop
21;Place nr 21;Bar
22;Place nr 22;Restaurant
23;Place nr 23;School
24;Place nr 24;Mall
25;Place nr 25;Hospital
26;Place nr 26;School
27;Place nr 27;Grocery shop
28;Place nr 28;Hospital
29;Place nr 29;Theater
30;Place nr 30;Hospital
31;Place nr 31;School
32;Place nr 32;Park
33;Place nr 33;Park
34;Place nr 34;Bar
35;Place nr 35;Bar
36;Place nr 36;Grocery shop
37;Place nr 37;Restaurant
38;Place nr 38;Restaurant
39;Place nr 39;Hospital
40;Place nr 40;Hospital
41;Place nr 41;School
42;Place nr 42;Grocery shop
43;Place nr 43;Grocery shop
44;Place nr 44;Theater
45;Place nr 45;Grocery shop
46;Place nr 46;Grocery shop
47;Place nr 47;Grocery shop
48;Place nr 48;Grocery shop
49;Place nr 49;Restaurant
50;Place nr 50;Theater
51;Place nr 51;Restaurant
52;Place nr 52;Bar
53;Place nr 53;Grocery shop
54;Place nr 54;Park
55;Place nr 55;School
56;Place nr 56;Hospital
57;Place nr 57;Hospital
58;Place nr 58;Mall
59;Place nr 59;School
60;Place nr 60;Mall
61;Place nr 61;Restaurant
62;Place nr 62;Restaurant
63;Place nr 63;School
64;Place nr 64;Park
65;Place nr 65;Mall
66;Place nr 66;Hospital
67;Place nr 67;Theater
68;Place nr 68;Bar
69;Place nr 69;Grocery shop
70;Place nr 70;Grocery shop
71;Place nr 71;Mall
72;Place nr 72;Bar
73;Place nr 73;School
74;Place nr 74;School
75;Place nr 75;Theater
76;Place nr 76;Hospital
77;Place nr 77;Bar
78;Place nr 78;Restaurant
79;Place nr 79;Hospital
80;Place nr 80;Hospital
81;Place nr 81;Mall
82;Place nr 82;Grocery shop
83;Place nr 83;Grocery shop
84;Place nr 84;Theater
85;Place nr 85;School
86;Place nr 86;Hospital
87;Place nr 87;Park
88;Place nr 88;Grocery shop
89;Place nr 89;Restaurant
90;Place nr 90;Hospital
91;Place nr 91;Mall
92;Place nr 92;Restaurant
93;Place nr 93;Restaurant
94;Place nr 94;Mall
95;Place nr 95;School
96;Place nr 96;Grocery shop
97;Place nr 97;Restaurant
98;Place nr 98;School
99;Place nr 99;Mall
100;Place nr 100;School
101;Rik's Local grocery shop;Grocery shop
