PersonId;PersonName;Healthstatus;ConfirmedTime;AddressLat;AddressLong
1;Landyn Greer;Healthy;2020-09-29T08:15:32;51,2130675910245;4,40612368800816
2;Hazel Kirby;Sick;2020-10-08T18:33:43;51,2182145945435;4,40546874482521
3;Lindsay Melton;Healthy;2020-09-13T17:52:52;51,2173357124405;4,41212738429929
4;Taylor Luna;Sick;2020-09-18T01:26:22;51,2114022340781;4,41015606512958
5;Brendon Bentley;Healthy;2020-10-08T12:56:26;51,2178078992831;4,40832347411351
6;Johnathan Hatfield;Sick;2020-09-18T16:21:00;51,2190388927798;4,40481632968077
7;Moshe Sanders;Sick;2020-10-12T20:50:45;51,2162889248043;4,40540624335638
8;Jesse Becker;Healthy;2020-09-14T00:35:38;51,2165458502634;4,41133777113736
9;Benjamin Browning;Sick;2020-09-23T18:51:35;51,2141214697571;4,40648793385442
10;Briley Joseph;Healthy;2020-09-25T01:04:18;51,2198082294943;4,40572017524789
11;Edwin Stein;Sick;2020-09-27T21:55:34;51,2178267177324;4,41225115092382
12;Saniyah Fuller;Healthy;2020-09-20T06:33:27;51,2160984467638;4,40297147815123
13;Viviana Holder;Sick;2020-10-10T01:17:43;51,2157612825269;4,40390672022808
14;Baylee Leblanc;Healthy;2020-09-25T19:35:09;51,2112706969476;4,40729726511203
15;Payton Kent;Sick;2020-09-16T13:40:01;51,2200855390485;4,40510268497258
16;Brooklynn Huynh;Healthy;2020-10-12T00:27:01;51,2172056390753;4,40790533012195
17;Timothy Norton;Healthy;2020-09-27T01:38:27;51,2124126696035;4,40460218801655
18;Madison Odonnell;Healthy;2020-09-14T07:49:20;51,2176588452246;4,41118346865318
19;Juliana Wade;Sick;2020-09-25T09:36:02;51,2174419978791;4,4083088339331
20;Erika Daniels;Healthy;2020-10-05T15:11:12;51,2123298065491;4,4054156294739
21;Leonidas Rodriguez;Healthy;2020-09-23T14:57:21;51,2173306650498;4,40486566850993
22;Ronan Cameron;Sick;2020-09-26T19:36:11;51,2129193667011;4,40924811813194
23;Rocco Chase;Sick;2020-09-27T04:39:02;51,2181722608952;4,41085283247432
24;Alexandria Kerr;Sick;2020-09-27T17:52:47;51,2112453338603;4,40599649418726
25;Justine Shepard;Sick;2020-10-05T05:41:17;51,2137190298691;4,40520067939663
26;Semaj Baldwin;Healthy;2020-09-23T13:18:41;51,2175116684404;4,41237948358696
27;Darian Bowers;Sick;2020-10-02T05:24:27;51,2133984779892;4,40720099868463
28;Shamar Stone;Sick;2020-09-15T03:33:39;51,2165691226006;4,4044393763904
29;Maurice Pruitt;Sick;2020-09-15T02:40:03;51,2134117297874;4,41244734636422
30;Jaylen Montes;Healthy;2020-09-24T18:44:34;51,2149698260379;4,40782542400237
31;Aditya Huff;Healthy;2020-10-07T17:04:37;51,2119076743487;4,41177842906051
32;Aubrie Humphrey;Sick;2020-09-19T00:10:25;51,219948521185;4,40927017330618
33;Enzo Eaton;Sick;2020-09-24T03:23:17;51,2126345229629;4,4107058333993
34;Jovan Hill;Healthy;2020-09-15T06:28:25;51,2130624580748;4,40800845149273
35;Payton Byrd;Sick;2020-09-18T04:43:29;51,2200028954536;4,40610712457775
36;Ansley Briggs;Sick;2020-10-03T23:24:40;51,2175762697125;4,40349999721179
37;Mia Archer;Sick;2020-10-08T13:22:01;51,2113720483824;4,40446477383769
38;Francisco Harvey;Sick;2020-10-06T09:57:43;51,217545886578;4,40756869856877
39;Hadley Fitzgerald;Sick;2020-09-20T11:22:57;51,21784446674;4,40380192299255
40;Ava Chambers;Sick;2020-10-11T18:48:44;51,2129300178208;4,41061100935836
41;Madeline Salazar;Sick;2020-09-26T22:20:43;51,216490412729;4,40631599691238
42;Korbin Castillo;Sick;2020-09-24T14:47:01;51,2107738291241;4,40936918492311
43;Charity Gill;Healthy;2020-09-27T10:48:25;51,2117976919618;4,40985706169407
44;Devin Bishop;Sick;2020-10-02T07:15:34;51,212620741101;4,41210523068719
45;Clayton Ochoa;Healthy;2020-09-21T21:03:07;51,2152212439875;4,40741470163488
46;Colton Carey;Healthy;2020-10-08T22:04:29;51,2115231176009;4,40981182324365
47;Ashly Ashley;Sick;2020-10-06T08:29:22;51,2157434010836;4,41080840309122
48;Kael Pierce;Healthy;2020-09-13T18:39:45;51,2155519427328;4,40348431789992
49;Karlie Grimes;Healthy;2020-09-17T03:28:49;51,218640422962;4,41175076369941
50;Payton Garner;Sick;2020-09-17T17:08:14;51,2121738015839;4,4112173957187
51;Dahlia Dawson;Sick;2020-09-18T06:28:18;51,2137704605283;4,40306133504104
52;Raegan Wilcox;Sick;2020-10-01T00:17:51;51,2200631767492;4,41090714367403
53;Tanya Lawson;Healthy;2020-09-13T07:35:50;51,2102664931069;4,40824867788778
54;Parker Thornton;Sick;2020-09-27T05:34:51;51,2157883396846;4,40704451941981
55;Alessandra Mcguire;Sick;2020-10-10T04:57:45;51,2115798617896;4,40668570268958
56;Allan Mosley;Sick;2020-09-13T19:37:57;51,215246365162;4,41267302193303
57;Stephany Vazquez;Healthy;2020-09-30T23:59:01;51,2171961757554;4,41066040671
58;Zavier Galloway;Healthy;2020-10-03T10:36:10;51,21062101476;4,40717959231087
59;Ellie Valentine;Healthy;2020-09-18T06:02:33;51,2199083926319;4,40861253881995
60;Julien Mcguire;Sick;2020-09-16T05:48:38;51,2115888416627;4,40642668954563
61;Waylon Bray;Healthy;2020-09-26T21:11:08;51,2169903498841;4,41212894170964
62;Sasha Wheeler;Sick;2020-10-05T23:12:03;51,2176398841807;4,40744589513604
63;Derrick Levine;Healthy;2020-09-27T04:38:17;51,2154925283125;4,40868940509175
64;Adriel Castillo;Sick;2020-10-06T21:51:59;51,2147708576438;4,40580389241583
65;Teresa Frazier;Healthy;2020-09-27T19:01:44;51,2195869746436;4,41010014533526
66;Tucker Cardenas;Sick;2020-09-17T04:59:28;51,2114898447443;4,40532775558826
67;Davion Sosa;Healthy;2020-10-06T23:39:17;51,2196648883125;4,40310318796808
68;Ellie Montes;Healthy;2020-09-22T08:09:04;51,2178482329045;4,41062129841614
69;Jayson Villarreal;Healthy;2020-10-06T22:29:09;51,219486364487;4,40492558238866
70;Jaydon Ho;Sick;2020-10-03T04:21:31;51,2103157610807;4,41270434510928
71;Averi Doyle;Sick;2020-10-03T15:28:12;51,2120385242379;4,41001627737732
72;Baron Collins;Sick;2020-10-04T01:23:38;51,2149839562092;4,40708860433405
73;Mauricio Weeks;Sick;2020-09-17T09:48:40;51,214110403408;4,41181488277322
74;Madden Foster;Healthy;2020-10-11T21:50:09;51,218502014743;4,40465726316085
75;Cody Carlson;Healthy;2020-09-18T03:24:49;51,2161980681084;4,4105419267619
76;Jaylynn Holder;Sick;2020-09-24T07:42:46;51,212565065316;4,41267849280516
77;Kendall Hinton;Sick;2020-10-10T16:10:01;51,2145349790016;4,40457313672427
78;Anabella Schroeder;Sick;2020-10-09T06:59:31;51,2191233503154;4,40605993357113
79;Braden Riddle;Sick;2020-09-26T03:50:55;51,2112948941921;4,41099054208865
80;Jaxson Holt;Sick;2020-09-23T16:57:58;51,2154672926431;4,41124695109218
81;Victor Stevenson;Healthy;2020-10-03T16:47:41;51,2149698755608;4,40758456995512
82;Tripp Melendez;Healthy;2020-09-24T10:07:27;51,2187366399633;4,41213225423733
83;Cheyenne Landry;Healthy;2020-09-21T14:07:36;51,2135791757268;4,40502603255412
84;Amiyah Brewer;Sick;2020-10-10T04:56:34;51,212180846179;4,40893195281302
85;Rigoberto Rose;Sick;2020-09-21T15:10:48;51,2199782409788;4,40519150941518
86;Jamya Walls;Healthy;2020-10-09T05:22:15;51,2142345528242;4,41001913679105
87;Karlee Trujillo;Sick;2020-09-18T18:50:51;51,215771085952;4,41001326991213
88;Zion Farrell;Sick;2020-09-29T02:28:31;51,213582023494;4,41137474073993
89;Mckenna Dixon;Healthy;2020-10-02T11:52:09;51,2126421566841;4,40577605525224
90;Stella Riley;Sick;2020-09-14T02:45:31;51,2144922565574;4,41245751694708
91;Kasey Ewing;Sick;2020-09-13T09:04:07;51,2111165865265;4,41024543206003
92;Ross Long;Sick;2020-09-27T09:02:31;51,2138418524869;4,41135425051274
93;Fernanda Blanchard;Sick;2020-09-26T17:14:22;51,2196320691516;4,40700642775162
94;Aria Delacruz;Healthy;2020-09-24T03:23:18;51,218977049603;4,41226229196308
95;Jerome Crosby;Healthy;2020-10-10T03:20:03;51,2111273787708;4,40860081176376
96;Tucker Delgado;Healthy;2020-10-07T23:29:01;51,2119461519027;4,41014614366032
97;Salma Wells;Sick;2020-09-30T17:13:48;51,2194434041954;4,40304503485086
98;Camryn Morris;Healthy;2020-10-06T10:58:51;51,2182529479264;4,40786607112871
99;Yareli Stout;Sick;2020-09-23T07:38:39;51,2147072438171;4,41132215329592
100;Kenyon Mullen;Healthy;2020-09-30T22:30:44;51,2188938658511;4,41000168099925
101;Orlando Donovan;Healthy;2020-10-08T15:42:13;51,2188857648278;4,41026209344075
102;Max Moody;Healthy;2020-10-04T03:25:16;51,2114907680267;4,4119566917991
103;Bernard Ochoa;Healthy;2020-09-19T04:47:29;51,2156237212624;4,40645468177019
104;Jayden Hubbard;Healthy;2020-10-03T00:38:55;51,2131528068835;4,4029758020138
105;Melina Serrano;Healthy;2020-10-11T05:42:52;51,2165013986861;4,40328976689484
106;Simon Bautista;Sick;2020-09-18T03:38:27;51,2180632603336;4,4124857721155
107;Kayden Ashley;Healthy;2020-09-22T12:35:20;51,2176253983976;4,41249856793778
108;Hadassah Fry;Sick;2020-09-14T02:13:03;51,2154797224422;4,40478927893736
109;Angie David;Healthy;2020-09-25T10:18:33;51,2150258719659;4,41202279695671
110;Kayleigh Davies;Healthy;2020-10-12T00:56:56;51,2153327659189;4,41238921127976
111;Averie Owen;Healthy;2020-09-18T02:23:20;51,2147860408872;4,4035972927787
112;Paige Burton;Sick;2020-10-06T16:35:05;51,2150852150977;4,40761228805707
113;Savanna Zavala;Healthy;2020-10-05T14:43:15;51,2200747197771;4,41142326717973
114;Denisse Mcintyre;Sick;2020-10-02T15:22:58;51,210459251741;4,41223659329987
115;Anabella Watkins;Healthy;2020-09-21T01:31:50;51,2190072090432;4,41171945105462
116;Jase Greer;Sick;2020-09-26T01:19:54;51,2158238456537;4,40429994538496
117;Iyana Copeland;Healthy;2020-10-02T01:02:16;51,2164737073391;4,40966791524896
118;Ben Mejia;Sick;2020-10-01T16:16:12;51,2177673020355;4,40438070567574
119;Lawrence Dennis;Sick;2020-10-03T04:00:07;51,2114198613972;4,40328347470419
120;Marlie Dunlap;Sick;2020-10-09T04:08:34;51,2132389343887;4,40443579031569
121;Adalynn Haas;Sick;2020-09-26T17:39:43;51,2165552428132;4,40997761685996
122;Eliana Keith;Healthy;2020-09-20T16:50:15;51,2171578557058;4,41061731700428
123;Viviana Glass;Sick;2020-10-05T06:18:27;51,2120916873931;4,41166219334148
124;Tia Mcfarland;Healthy;2020-10-12T02:35:22;51,2176583842997;4,40691796187758
125;Aria Church;Sick;2020-09-27T22:08:19;51,2176824113614;4,40703598695564
126;Dominique Ball;Sick;2020-10-02T10:58:33;51,2149948717011;4,40578259345586
127;Theodore Mueller;Sick;2020-09-28T23:23:41;51,2130202457106;4,40540210115904
128;Deven Hays;Healthy;2020-10-12T10:47:03;51,2131852068124;4,41139569144963
129;Sidney Marsh;Healthy;2020-09-22T17:36:12;51,2106117248721;4,40928380246572
130;Jakobe Hoffman;Sick;2020-09-27T09:36:52;51,2161093912999;4,41068683367613
131;Duncan Garcia;Healthy;2020-09-26T17:21:24;51,2192186295578;4,40291647426624
132;Alayna Greene;Sick;2020-10-10T01:50:16;51,2135282341663;4,40793979782824
133;Darius Ellis;Sick;2020-10-06T05:34:22;51,2174576636625;4,4090153315185
134;Perla Mayer;Healthy;2020-10-12T09:48:18;51,2159825461957;4,40406830942585
135;Reynaldo Kramer;Healthy;2020-09-20T13:00:35;51,2165128745929;4,40841596119952
136;Alissa Ryan;Sick;2020-09-29T14:10:58;51,2147682186298;4,40367476166743
137;Jefferson Martinez;Healthy;2020-09-28T04:46:00;51,214620367112;4,40365448866762
138;Axel Dominguez;Sick;2020-10-04T14:39:19;51,2129014787285;4,40970834550579
139;Issac Stafford;Healthy;2020-09-23T18:28:24;51,2145133673939;4,40306016580624
140;Konner Abbott;Sick;2020-09-24T20:03:40;51,2102175683159;4,41146498207113
141;Jenny Mccann;Sick;2020-10-10T20:16:09;51,2165200144392;4,41232030945977
142;Tyrell Ford;Sick;2020-09-24T19:15:44;51,2174152176565;4,40570870461577
143;Hillary Fox;Healthy;2020-10-09T03:08:37;51,2147204964368;4,40619566929201
144;Kason Pena;Healthy;2020-09-26T08:36:06;51,2141198235574;4,40290074752297
145;Lesly Wise;Sick;2020-09-15T19:43:33;51,2104684756514;4,40803162227427
146;Gabriel Cox;Healthy;2020-09-23T13:31:20;51,2172056234729;4,41105190633993
147;Tristin Richardson;Healthy;2020-10-03T21:30:32;51,2147303404431;4,40868089821856
148;Cassie Lloyd;Sick;2020-10-07T19:36:52;51,2167924990116;4,41217534904209
149;Leonardo Moreno;Healthy;2020-09-14T04:11:01;51,2196617081993;4,4081394753525
150;Gracelyn Proctor;Sick;2020-09-25T10:27:28;51,2179896748083;4,41136031601742
151;Roselyn Huynh;Sick;2020-09-13T15:57:07;51,2144094124148;4,40943735711426
152;Jayleen Stevenson;Sick;2020-09-17T08:30:12;51,2161671969385;4,41000404143568
153;Heather Buck;Healthy;2020-09-18T12:55:37;51,2192556431354;4,40853046660722
154;Colt Haney;Sick;2020-09-19T21:55:30;51,210411896928;4,40912064986222
155;Paxton Sandoval;Sick;2020-09-21T21:42:36;51,2147313405968;4,40705271560434
156;Raul Reilly;Healthy;2020-09-14T00:57:19;51,2188940958457;4,40466632661713
157;Ansley Brady;Sick;2020-09-24T12:20:56;51,2169588901394;4,41053803905241
158;Tessa Dunn;Sick;2020-09-19T02:22:09;51,2192292625607;4,40343346263137
159;Harry King;Sick;2020-09-16T20:21:41;51,2112990920911;4,40684386713026
160;Aldo Chavez;Healthy;2020-09-17T11:14:53;51,2164521111081;4,40619085283855
161;Sonia Lewis;Sick;2020-09-27T06:54:41;51,2198783888471;4,40803830430759
162;Grady Pugh;Sick;2020-09-19T17:04:23;51,2186775268923;4,40648969428786
163;Rylee Warren;Healthy;2020-09-27T15:44:11;51,2151030857117;4,40413279683114
164;Reyna Gray;Sick;2020-09-22T10:17:19;51,2136982692646;4,40502139849002
165;Rose Tyler;Healthy;2020-09-20T22:00:44;51,2152949280923;4,40533485146012
166;Jeffrey Whitney;Healthy;2020-09-30T20:18:23;51,2154715761683;4,40868958852478
167;Connor Haney;Healthy;2020-09-23T04:46:19;51,2171756430493;4,40902251259921
168;Eileen King;Sick;2020-10-12T04:58:51;51,2102815469706;4,40469286734923
169;Talia Stark;Healthy;2020-10-03T18:20:30;51,2106324482117;4,40353684486719
170;Delilah Huerta;Healthy;2020-10-06T12:22:04;51,2176395021603;4,41122523113038
171;Aiden Kim;Healthy;2020-09-30T23:49:30;51,2167924336123;4,41161846936963
172;Gary Skinner;Healthy;2020-09-29T22:02:05;51,2183345632112;4,40983987050949
173;Madisyn Ramos;Healthy;2020-09-20T19:21:47;51,2201737047476;4,40705028570672
174;Lana Barrett;Healthy;2020-10-03T19:55:18;51,2161777883976;4,40915770948107
175;Nathanial Welch;Healthy;2020-10-10T18:47:12;51,2196366986339;4,40487873744712
176;Eric Clark;Healthy;2020-09-14T14:13:05;51,2158274622518;4,40907999230137
177;Rose Roy;Healthy;2020-09-25T19:25:32;51,2125575709139;4,40520484770954
178;Eden Cross;Healthy;2020-09-16T06:40:20;51,2130398913039;4,40356740376844
179;Jasmin Odonnell;Healthy;2020-09-13T22:55:59;51,2157096629351;4,41267942891135
180;Jayce Hurst;Sick;2020-10-11T11:45:47;51,2197223188884;4,4110916482669
181;Payton Duke;Healthy;2020-09-20T07:11:16;51,2115796416216;4,40384908806173
182;Malcolm Hoffman;Healthy;2020-09-23T18:10:25;51,211239879355;4,40939567629596
183;Finley Humphrey;Sick;2020-10-03T08:59:47;51,2175655424179;4,40493822190985
184;Guadalupe Knight;Sick;2020-10-11T13:20:11;51,2134494148764;4,40590722980256
185;Dulce Moss;Healthy;2020-09-22T09:12:40;51,2148017678796;4,40367871548913
186;Imani Abbott;Sick;2020-10-05T04:04:16;51,2116411838962;4,40913664451775
187;Jaidyn Avila;Healthy;2020-09-20T09:35:37;51,2188521631009;4,40484472729795
188;Milo Mack;Healthy;2020-10-02T18:09:42;51,2138969533596;4,41041643161653
189;Lily Bernard;Healthy;2020-10-08T17:09:29;51,210376432224;4,4039120084654
190;Angie Krueger;Sick;2020-10-07T07:30:37;51,219640933603;4,40721847184519
191;Cody Juarez;Sick;2020-10-11T12:09:00;51,2173956955189;4,41215011453955
192;Harley Friedman;Sick;2020-09-15T20:08:37;51,2174359576511;4,40889091476446
193;Lana Arellano;Sick;2020-09-20T21:54:26;51,2109679430689;4,40749543780306
194;Omari Cain;Sick;2020-10-12T03:35:28;51,2159549996982;4,41242873078776
195;Charlie Wallace;Sick;2020-10-08T11:54:04;51,2120332009237;4,40363057448891
196;Abraham Petersen;Sick;2020-09-14T15:08:31;51,2109312642526;4,40432405107964
197;Tate Cannon;Sick;2020-10-06T03:19:30;51,2177481924187;4,4029429366345
198;Kali Leonard;Healthy;2020-10-03T19:38:01;51,2174069883651;4,41155708116091
199;Izabelle Hays;Sick;2020-09-13T06:37:39;51,2185702140909;4,40577876614151
200;Rocco Mendez;Healthy;2020-09-24T04:09:21;51,2166646102724;4,40977919979078
201;Ashleigh Cooke;Sick;2020-10-01T11:18:48;51,2154363456831;4,41208878913775
202;Max David;Healthy;2020-09-22T00:06:58;51,2200813584948;4,4113176265675
203;Gisselle Mcintosh;Sick;2020-10-09T17:36:50;51,2183308218392;4,40580044054168
204;Connor Strong;Sick;2020-09-27T21:07:39;51,2134953158238;4,40482154621274
205;Paisley Brock;Sick;2020-10-08T00:09:08;51,2123383134579;4,41234161034961
206;Emery Baldwin;Healthy;2020-09-21T19:04:24;51,2133177545216;4,40607034455575
207;Anahi Esparza;Healthy;2020-09-28T19:43:00;51,2147553156453;4,40972632159069
208;Johnathan Gomez;Healthy;2020-10-01T18:23:48;51,2144078179395;4,41036045512401
209;Sariah Burnett;Sick;2020-10-08T21:25:05;51,2185354116205;4,40391955272294
210;Katherine Rush;Sick;2020-09-21T23:22:58;51,2165951640537;4,41116792871684
211;Kennedi Terrell;Healthy;2020-09-27T08:22:46;51,2175850060807;4,4108221018704
212;Denise Solis;Healthy;2020-09-30T23:52:02;51,211198905709;4,41095810580107
213;Zoe Hooper;Healthy;2020-09-22T08:19:31;51,2165460407677;4,41196247002798
214;Mallory Monroe;Healthy;2020-10-06T12:21:14;51,2181974911987;4,40574347180615
215;Elvis Patrick;Healthy;2020-09-20T07:51:33;51,2144765627785;4,41138883578873
216;Antonio Tapia;Healthy;2020-09-30T19:35:47;51,2165585288832;4,40962470555196
217;Jenna Shields;Healthy;2020-09-24T13:52:24;51,2158408681019;4,41153078865324
218;Jaylon Jordan;Sick;2020-09-29T14:35:19;51,2179268866404;4,410405320009
219;Riya Mayo;Sick;2020-09-20T05:41:01;51,2167401297779;4,40691439486311
220;Luz Frazier;Healthy;2020-09-18T19:18:56;51,2162724940302;4,40325006825381
221;Eric Robertson;Sick;2020-10-09T17:36:35;51,2166696283571;4,40922474268413
222;Niko Vazquez;Sick;2020-10-09T09:19:32;51,2147973083;4,40906602800027
223;Marisa Parsons;Healthy;2020-09-29T03:00:15;51,2172188393321;4,40783143429291
224;Jazmine Petty;Healthy;2020-09-24T14:33:16;51,2144250553758;4,40506830420172
225;Mareli Pope;Healthy;2020-10-11T05:15:43;51,2156508472446;4,40586488972798
226;Corinne Coleman;Sick;2020-09-25T11:40:03;51,2112271593897;4,41268501628692
227;Niko Wells;Healthy;2020-09-28T04:39:42;51,2117684980504;4,40314908960188
228;Gordon Bean;Healthy;2020-10-07T17:42:33;51,2114737584908;4,410626541892
229;Destiney Harper;Healthy;2020-09-13T20:35:57;51,2179026074581;4,4099972524173
230;Kade Acosta;Healthy;2020-09-30T07:49:36;51,2176072741649;4,4105971472992
231;Salvador Curtis;Sick;2020-10-03T14:55:00;51,216469251309;4,40602705251809
232;Darrell Farrell;Healthy;2020-10-04T11:32:46;51,2136006865926;4,40462720498344
233;Keenan Gregory;Sick;2020-09-30T00:35:15;51,2185151103854;4,40487747627499
234;Joyce Schaefer;Healthy;2020-10-06T09:28:29;51,2160460841673;4,40602103626473
235;Kendra Fitzpatrick;Healthy;2020-09-24T10:53:01;51,2174863148938;4,40417284369352
236;Holly Ritter;Healthy;2020-09-30T22:18:34;51,2176645124138;4,4114712311438
237;Avery Tanner;Sick;2020-09-25T02:12:20;51,2189553821894;4,40729943619185
238;Zack Simon;Healthy;2020-09-17T16:57:37;51,2153280004964;4,40714553147947
239;Moshe Maynard;Healthy;2020-10-03T10:23:02;51,2132257152153;4,40648100595208
240;Jimmy Wilkins;Sick;2020-10-11T14:41:38;51,2135404723614;4,40325524335912
241;Paige Richards;Sick;2020-10-07T06:35:40;51,2136512993232;4,403327945527
242;Faith Ellis;Healthy;2020-09-16T22:59:37;51,2110182841264;4,41228206235915
243;Brooklynn Gentry;Healthy;2020-10-09T17:25:29;51,2192358220548;4,40891359629538
244;Miles Boyd;Healthy;2020-10-09T17:19:28;51,2200613186363;4,40372543359129
245;Remington Kemp;Healthy;2020-09-30T10:15:01;51,2131857803023;4,40453244714286
246;Mayra Terry;Sick;2020-09-21T12:38:58;51,2137230836085;4,41046625053256
247;Holly Nguyen;Healthy;2020-10-01T17:08:58;51,2171570301662;4,40303726482313
248;Karly Mooney;Sick;2020-09-13T21:14:16;51,2105975988588;4,41218480899789
249;Giovanni Fisher;Healthy;2020-10-12T16:16:50;51,2198806412015;4,40454410060831
250;Ryder Moyer;Healthy;2020-10-12T05:10:29;51,2120147564775;4,40399503415665
251;Miranda Mcneil;Sick;2020-10-07T06:36:51;51,2105981608925;4,40546867730863
252;Wyatt Mcconnell;Healthy;2020-09-19T01:55:29;51,2136689678274;4,40406731353896
253;Nina Khan;Sick;2020-09-28T20:14:15;51,2143894623022;4,40349379080098
254;Alisa Maxwell;Healthy;2020-09-26T04:21:32;51,2194528131769;4,41008945615931
255;Semaj Roach;Healthy;2020-10-06T19:30:10;51,2140217494475;4,40742810366596
256;Andreas Contreras;Sick;2020-09-30T03:17:42;51,2193204861142;4,40991442413129
257;Katrina Wood;Sick;2020-10-11T22:11:13;51,2140489920956;4,41269901969722
258;Willie Hoover;Healthy;2020-09-30T22:13:24;51,2137707480078;4,40527410465486
259;Tatiana Leblanc;Sick;2020-09-28T16:21:47;51,2176099001937;4,4109237037376
260;Nicole Blake;Sick;2020-10-06T10:42:07;51,2182056703458;4,40766113292648
261;Gary Ritter;Sick;2020-10-06T06:05:14;51,2102700931902;4,40362092138079
262;Jaylin Ayers;Sick;2020-09-25T15:46:14;51,2115766538928;4,41275320912076
263;June Pope;Healthy;2020-10-11T19:27:10;51,211781689735;4,40471836649331
264;Demarcus Howe;Sick;2020-09-26T00:58:52;51,2160854531077;4,41081364359562
265;Dylan Harper;Healthy;2020-09-13T11:40:15;51,2151749162061;4,41115321559178
266;Bryant Nicholson;Sick;2020-09-20T11:03:43;51,2179617768282;4,40533286953477
267;Agustin Savage;Sick;2020-10-10T15:15:38;51,2111147738923;4,4038486999283
268;Judah Johnston;Healthy;2020-10-08T01:29:57;51,2156778874012;4,40665913903332
269;Molly Hinton;Sick;2020-10-12T15:46:01;51,2153576151779;4,4087611825756
270;Kadyn Schneider;Healthy;2020-09-26T08:22:28;51,2103550359237;4,40872755758793
271;Lainey Meyer;Sick;2020-09-15T10:52:25;51,2118835242102;4,40760185272058
272;Darnell Mayer;Healthy;2020-09-15T16:03:35;51,2126792480451;4,41207059559218
273;Preston Marshall;Sick;2020-09-20T16:45:18;51,213874937116;4,40368870054993
274;Elsie Cochran;Healthy;2020-10-07T21:37:03;51,2130930540771;4,40902562831567
275;Demarion Delacruz;Sick;2020-10-07T03:10:28;51,2199681815874;4,41218322477951
276;Juliana Doyle;Healthy;2020-09-18T18:14:43;51,2184619276606;4,40784801114853
277;Alejandra Richards;Sick;2020-10-10T08:03:29;51,2128550889751;4,40513425060583
278;Dashawn Bean;Sick;2020-10-06T04:36:16;51,2141077361579;4,40963848249615
279;Shiloh Byrd;Sick;2020-09-26T10:14:09;51,2148728549981;4,40737411951189
280;Nicolas Miles;Sick;2020-09-24T04:02:56;51,2188760684718;4,40983429740026
281;Kaylen Robles;Sick;2020-09-14T10:53:16;51,216157684742;4,40558239308016
282;Alessandro Cummings;Healthy;2020-10-04T20:16:55;51,2185139336087;4,407962944308
283;Francisco Norton;Healthy;2020-09-26T09:49:40;51,2141558945799;4,40707141845044
284;Alberto Haynes;Healthy;2020-10-06T09:06:53;51,2173782872158;4,40660554118583
285;Sienna Harper;Healthy;2020-09-19T06:25:33;51,2114428389545;4,4079416398535
286;Deon Estes;Sick;2020-09-25T06:10:35;51,2117268904278;4,4084583876675
287;Lukas Boyd;Healthy;2020-09-25T13:14:49;51,2117361259594;4,40781406726737
288;Blake Hawkins;Sick;2020-09-20T09:06:40;51,2146250729969;4,40450581519421
289;Darryl Johnston;Sick;2020-10-01T06:00:18;51,217611287712;4,41051748357713
290;Vincent Lindsey;Healthy;2020-09-19T17:50:22;51,2127445369807;4,40665128122677
291;Winston Cabrera;Sick;2020-09-30T20:21:04;51,2111847504504;4,40647788189789
292;Annabelle Cooley;Healthy;2020-10-06T03:37:58;51,2134855690125;4,40808702724053
293;Remington Banks;Sick;2020-09-19T01:01:39;51,217127130226;4,40320428137971
294;Trystan Flores;Sick;2020-09-26T14:37:40;51,2142199292937;4,40496104350825
295;Rachel Valentine;Sick;2020-09-13T14:22:53;51,2116913666113;4,4053679501677
296;Caitlyn Hodges;Sick;2020-10-08T01:14:10;51,2168805677205;4,40296181226976
297;Madisyn Bryant;Sick;2020-09-24T07:39:16;51,2104670471991;4,40701074716498
298;Rachel Salas;Sick;2020-09-20T14:22:52;51,2154948478769;4,40578357070244
299;Johanna Cantu;Sick;2020-09-23T03:12:59;51,2142540373015;4,40628624235063
300;Nicolas Ferguson;Sick;2020-09-24T22:41:35;51,2150037395877;4,40293239740336
301;Quinten Trevino;Healthy;2020-09-23T17:22:34;51,2111334695842;4,40442686417356
302;Francisco Vance;Healthy;2020-10-12T06:33:21;51,2110392377801;4,40550225634004
303;Monserrat Bullock;Healthy;2020-09-15T04:31:20;51,2143335647479;4,40642587008572
304;Reagan Petty;Sick;2020-10-12T01:03:36;51,2114864787238;4,4071959072232
305;Kayleigh May;Sick;2020-09-23T04:30:48;51,2151782377119;4,40697190630757
306;Braiden Jenkins;Sick;2020-10-11T23:54:59;51,2131037766972;4,41037728441494
307;Grady Cooley;Sick;2020-10-09T16:05:55;51,2110887444112;4,4113335001059
308;Rihanna Bauer;Healthy;2020-09-22T10:12:05;51,2197220111333;4,40800860471865
309;Jayden Pennington;Sick;2020-10-09T00:21:31;51,2188966832724;4,40642524523517
310;Perla Owens;Sick;2020-10-09T12:27:51;51,2168541190322;4,40936067489648
311;Finnegan Velazquez;Sick;2020-10-06T01:25:59;51,2191354592902;4,41106526398337
312;Layla Stewart;Healthy;2020-09-24T00:29:04;51,2182673267188;4,40641730903097
313;Everett Chapman;Sick;2020-09-14T01:13:40;51,2146009334544;4,40323188475772
314;Karli Hahn;Sick;2020-09-23T22:33:24;51,2110790411776;4,41008494744553
315;Blake Robbins;Sick;2020-10-10T15:29:49;51,2123754952409;4,40598612548778
316;Lacey Dixon;Sick;2020-09-16T09:22:47;51,2127402025675;4,40383593092956
317;Leandro Frederick;Healthy;2020-09-29T04:04:47;51,2122964757364;4,40977938360545
318;Alessandro Carey;Sick;2020-09-30T10:41:30;51,2107625578044;4,4052402382015
319;Mario Mcpherson;Healthy;2020-09-18T13:10:07;51,214452934473;4,40759142630375
320;Mohammad Mahoney;Healthy;2020-10-12T07:16:42;51,2184297626251;4,40298379775871
321;Dylan Kelley;Sick;2020-10-02T20:47:45;51,2112225809265;4,41014243791413
322;Jabari Mueller;Healthy;2020-09-16T21:03:40;51,2102894041751;4,40571375661641
323;Marvin Costa;Healthy;2020-10-10T01:28:59;51,2115204748271;4,40409203674319
324;Abbigail Perry;Sick;2020-09-30T21:50:35;51,2122553076022;4,40967958798613
325;Kingston Oneal;Healthy;2020-09-25T17:43:31;51,2104950571795;4,41111507409399
326;Braydon Ramsey;Sick;2020-10-01T19:24:22;51,2147208143153;4,40812258305294
327;Addisyn Liu;Healthy;2020-09-13T13:16:13;51,2130588431364;4,40361328361148
328;Jenny Rogers;Healthy;2020-09-16T07:30:14;51,2141390832792;4,40951052331903
329;Makhi Coleman;Sick;2020-10-11T09:06:19;51,2201638443042;4,4037263591018
330;Layla Mendez;Sick;2020-09-22T17:00:46;51,2171656030051;4,40812931302785
331;Pranav Cobb;Sick;2020-09-18T05:36:39;51,2131256568839;4,40435917532998
332;Abel Arnold;Sick;2020-09-18T16:40:02;51,2168840127587;4,41194472895868
333;Kallie Good;Sick;2020-10-12T10:34:08;51,2121815204673;4,40941918112263
334;Elsie Rowland;Healthy;2020-09-28T22:41:50;51,2161474252883;4,40461184754149
335;Hazel Stuart;Sick;2020-10-04T18:03:40;51,2197691207516;4,40445856757458
336;Zander Gaines;Healthy;2020-10-06T04:25:45;51,2139186361651;4,40821151682734
337;Joseph Lam;Sick;2020-09-13T10:23:48;51,218284120401;4,40856108656062
338;Annie Cordova;Healthy;2020-10-09T20:52:15;51,2169477742234;4,40556192186397
339;Arianna Lowery;Sick;2020-09-13T02:01:29;51,2134814989681;4,4069031738019
340;Chance Robertson;Healthy;2020-10-04T06:31:33;51,2103246942484;4,40416533564398
341;Antwan Bruce;Sick;2020-09-21T06:15:17;51,2182578529801;4,41119072504416
342;Clayton Woods;Sick;2020-09-20T08:54:23;51,220040502713;4,40793850522095
343;Sergio Bryan;Healthy;2020-10-03T13:34:16;51,2200258527658;4,41130683637424
344;Chaz Blake;Sick;2020-09-22T18:05:43;51,2182312793043;4,4125705442863
345;Miracle Weaver;Healthy;2020-09-21T19:02:58;51,2166505563696;4,40429955738128
346;Kayden Gilbert;Healthy;2020-10-01T18:02:05;51,2171987932997;4,40992836279399
347;Ada Sims;Sick;2020-09-20T13:20:45;51,2137027371688;4,40461047145309
348;Kenny Sanchez;Sick;2020-09-22T21:48:15;51,2157347683006;4,40785234934635
349;Brenton Daniels;Healthy;2020-10-03T19:02:27;51,2201164105557;4,40854919861936
350;Cierra Villanueva;Sick;2020-10-06T06:22:53;51,2139799409711;4,41012878472637
351;Jakobe Krause;Healthy;2020-10-07T23:43:11;51,214876831325;4,40672291351826
352;Azaria Gaines;Healthy;2020-10-04T21:24:20;51,2200252573049;4,40637305717426
353;Teagan Snyder;Healthy;2020-09-21T08:44:34;51,2170114316357;4,41009110373839
354;Maddison Hutchinson;Healthy;2020-10-01T19:53:01;51,2171508043738;4,40865335340348
355;Warren Yates;Healthy;2020-10-02T19:23:52;51,2102659026036;4,40772186973294
356;Ross Osborne;Healthy;2020-10-09T23:32:22;51,2176695706701;4,40348273740877
357;Josue Clements;Healthy;2020-09-17T18:03:57;51,2143150270023;4,41182605223929
358;Genevieve Murphy;Sick;2020-09-24T15:07:49;51,2147942183087;4,403466048355
359;Kaylee Hudson;Sick;2020-10-04T05:44:33;51,2152517039658;4,41021574549306
360;Guadalupe Snow;Sick;2020-10-03T02:24:03;51,2107151616866;4,40731699478178
361;Augustus Zhang;Sick;2020-09-13T10:24:51;51,215845995271;4,40967630932544
362;Kelsey Mcintosh;Healthy;2020-10-06T00:34:58;51,2169506589135;4,403412742362
363;Mireya Crane;Sick;2020-09-21T00:55:00;51,2193178819417;4,40595947196224
364;Lucille Mahoney;Healthy;2020-09-17T08:41:08;51,2175791073347;4,40878718745351
365;Damien Underwood;Sick;2020-10-08T20:40:39;51,2174838937277;4,40624593933769
366;Kadence Mckee;Sick;2020-10-02T15:30:05;51,2153040138198;4,41003412417846
367;Davis Riddle;Sick;2020-10-09T18:39:41;51,216071094855;4,4126072655415
368;Gaige Matthews;Healthy;2020-10-08T12:05:49;51,2171595888005;4,40912206560301
369;Jimena Sampson;Sick;2020-10-12T05:28:14;51,2163801306854;4,40675867285761
370;Jewel Simon;Sick;2020-10-02T09:47:12;51,2195350036491;4,40531120434683
371;Alyvia Kelley;Sick;2020-09-23T16:15:49;51,2143513922746;4,40675495811202
372;Briley Leonard;Sick;2020-10-09T18:30:46;51,2134080077888;4,41257701116816
373;Dario Greene;Healthy;2020-09-19T19:45:02;51,219089784675;4,40837322454823
374;Natalia Massey;Healthy;2020-09-21T06:25:53;51,2191974174068;4,40806034101384
375;Samir Scott;Sick;2020-10-02T04:49:37;51,2174875466125;4,41178398163442
376;Phillip Forbes;Sick;2020-09-28T22:40:26;51,2141663873488;4,4032320739285
377;Isla Mccullough;Sick;2020-09-14T01:01:41;51,2162936687833;4,40315395157839
378;Santos Townsend;Healthy;2020-10-01T05:06:55;51,2135154977029;4,40799105699679
379;Cortez Montes;Sick;2020-10-05T06:59:20;51,2153353772584;4,40559929924375
380;Melissa Kelly;Healthy;2020-09-24T12:16:27;51,2117554886767;4,41105473812932
381;Deegan Alvarez;Healthy;2020-10-01T03:28:52;51,2127729842654;4,40837743093324
382;Andy Gay;Sick;2020-10-03T22:16:35;51,2144639010779;4,41211044045122
383;Emiliano Adkins;Healthy;2020-10-02T22:42:06;51,2129255261438;4,40742317490817
384;Andreas Bass;Healthy;2020-09-26T15:42:24;51,2112297873203;4,40613589211228
385;Tristian Cherry;Sick;2020-09-28T10:35:39;51,2183101905355;4,41166536622031
386;Jamarcus Hurley;Healthy;2020-10-03T10:35:02;51,2137807199278;4,41009637358564
387;Madyson Glenn;Healthy;2020-09-23T09:17:33;51,2168246612517;4,40694459890943
388;Tabitha Swanson;Sick;2020-10-09T16:22:11;51,2156011055;4,40571492770953
389;Madison Kerr;Sick;2020-09-24T10:46:09;51,2124049536004;4,40680425102247
390;Jocelyn Taylor;Healthy;2020-09-23T07:06:39;51,2146174998069;4,40747375687118
391;Danika Carroll;Sick;2020-09-18T17:40:31;51,2178099203894;4,40660005215901
392;Elian Pineda;Healthy;2020-09-26T04:45:43;51,2126513766157;4,4028468344039
393;Aden Ray;Healthy;2020-09-20T03:55:08;51,210452377807;4,41043796694319
394;Chad Calhoun;Sick;2020-09-29T06:59:43;51,2138867521938;4,40806305831868
395;Krish Wolf;Sick;2020-10-02T05:55:43;51,2161001722378;4,40601445484001
396;Micheal Hays;Healthy;2020-10-11T22:53:18;51,2188708649373;4,40961487965843
397;Marie Huff;Healthy;2020-09-29T19:57:01;51,2186945681077;4,40510167126888
398;Jay Vargas;Sick;2020-09-25T06:17:50;51,2160166942735;4,41021240710173
399;Simon Brown;Healthy;2020-09-16T16:51:39;51,2102523848846;4,40700455076761
400;Layton Mccarthy;Healthy;2020-10-08T01:39:32;51,2138256421285;4,40368117467252
401;Reynaldo Duarte;Sick;2020-09-18T13:43:01;51,2172961481194;4,40975498304897
402;Natalee Mcdaniel;Sick;2020-10-02T16:20:27;51,2132078258064;4,40459275366159
403;Libby Davidson;Sick;2020-09-27T00:20:03;51,2137621328977;4,40378134829051
404;Riley Stanton;Sick;2020-10-02T14:16:04;51,2188982103358;4,40744324394191
405;Gunner Ryan;Sick;2020-09-20T18:27:04;51,2124913208816;4,40890015609949
406;Efrain Fleming;Sick;2020-10-03T18:14:12;51,2126230371551;4,4047478523474
407;Ralph Walsh;Sick;2020-09-13T18:51:27;51,2147186170547;4,40830064978579
408;Alison Herrera;Healthy;2020-09-13T14:37:30;51,2118300207376;4,4056899556468
409;Danny Jarvis;Healthy;2020-09-29T18:18:17;51,2198085007352;4,40321675044359
410;Marcus Gallagher;Healthy;2020-09-15T02:31:14;51,2106263793028;4,40751641540736
411;Regina Aguilar;Healthy;2020-09-23T04:54:44;51,214399847997;4,41143773696869
412;Kane Hogan;Sick;2020-09-14T00:53:25;51,2177831596544;4,40817795449124
413;Reynaldo Irwin;Healthy;2020-09-15T08:38:13;51,2191638725233;4,40475429399136
414;Justin Schroeder;Sick;2020-09-19T13:24:45;51,2123976359405;4,41057555231951
415;Eileen Rodgers;Healthy;2020-09-23T15:22:09;51,2180580397661;4,40282264511168
416;Frank Buck;Healthy;2020-10-05T00:30:33;51,2199148373391;4,40431633528371
417;Tiffany Booker;Healthy;2020-10-05T20:22:37;51,2132045399604;4,41003847255418
418;Bobby French;Healthy;2020-09-17T09:41:46;51,2178669446807;4,40461382462486
419;Declan Goodman;Healthy;2020-09-24T11:18:52;51,2158097689628;4,40638955105809
420;Mason Ferguson;Healthy;2020-09-17T15:42:21;51,2162028986785;4,41136758796046
421;Jasmin Abbott;Healthy;2020-09-20T07:45:08;51,2134906714295;4,40751872250268
422;Kaila Stanley;Healthy;2020-10-10T11:01:39;51,2178260326756;4,40290319099982
423;Kamren Donaldson;Sick;2020-09-27T07:39:59;51,2131091793945;4,40699422549748
424;Caden Duffy;Healthy;2020-10-04T13:31:28;51,2161201027858;4,4065589283828
425;Serenity Mora;Sick;2020-10-04T04:11:19;51,2174544660619;4,41179907196496
426;Ashley Mcdaniel;Sick;2020-10-08T21:45:45;51,2120336465353;4,41162917517876
427;Ivy Downs;Sick;2020-10-11T03:52:30;51,2189845153157;4,41275077341631
428;Paula Ramos;Healthy;2020-09-14T16:31:35;51,2145375451582;4,41180436594199
429;Samir Guerrero;Healthy;2020-09-25T00:08:49;51,212362721797;4,40699846333244
430;Stella Alvarez;Healthy;2020-09-30T02:27:25;51,2110176205702;4,40427032369536
431;Carlo Bryan;Healthy;2020-10-09T02:14:57;51,2201161403799;4,40914725331988
432;Trevon Deleon;Healthy;2020-09-22T16:32:33;51,2113111552473;4,40950513651783
433;Amiya Bright;Healthy;2020-10-08T19:21:16;51,2190996836302;4,40948506281229
434;Lily Hale;Healthy;2020-09-22T15:19:43;51,2145876928308;4,41208432043891
435;Judah Mcdonald;Healthy;2020-10-06T21:09:49;51,2167055962149;4,41161448306265
436;Kellen Tyler;Healthy;2020-10-03T21:16:51;51,2138375285758;4,41112859877722
437;Kaleigh Drake;Sick;2020-10-05T15:49:24;51,2189335332534;4,40598715234326
438;Mekhi Odonnell;Sick;2020-10-09T00:31:31;51,2173955089538;4,40839136014809
439;Bruno Mendez;Sick;2020-09-16T19:01:18;51,2163347228061;4,40846217396327
440;Aliza Freeman;Sick;2020-09-29T14:35:25;51,2133513188859;4,40326034039039
441;Bianca Hale;Healthy;2020-09-23T06:45:17;51,2169400199982;4,41155113248916
442;Heaven Lewis;Healthy;2020-09-16T14:53:08;51,2118827953687;4,40403822875461
443;Kristina Shepard;Sick;2020-10-07T06:15:15;51,2148003699819;4,4116767202557
444;Rudy Cooley;Healthy;2020-09-20T19:06:49;51,2105890021889;4,40695478451165
445;Caden Villa;Sick;2020-10-10T14:46:15;51,2129863543307;4,40479445033534
446;Yosef Higgins;Sick;2020-09-24T15:58:18;51,2107549237206;4,40593433537484
447;Alonzo Ramirez;Sick;2020-10-07T03:47:16;51,2134339915965;4,40993656136276
448;Serenity Jacobs;Sick;2020-09-19T09:34:12;51,213981342019;4,41192853887967
449;Roselyn Mckay;Sick;2020-09-30T01:44:32;51,2162144891515;4,40662176247353
450;Adalynn Fleming;Healthy;2020-10-09T04:00:22;51,2159179519187;4,4062301669621
451;Helena Leach;Healthy;2020-09-28T14:01:30;51,2127159838242;4,40279033410973
452;Gillian Castro;Healthy;2020-09-25T01:43:22;51,21056236641;4,40641787303904
453;Tyrell Velazquez;Healthy;2020-09-22T17:15:45;51,2193777473711;4,4074453198615
454;Quentin Gardner;Sick;2020-09-13T03:40:52;51,2167811959002;4,40833462777706
455;Zechariah Garner;Sick;2020-09-15T09:22:40;51,214329190292;4,40710481063996
456;Shiloh Adkins;Sick;2020-10-07T15:18:48;51,2183754048094;4,4085557105149
457;King Maddox;Healthy;2020-09-22T10:19:37;51,2161601961095;4,4123465059668
458;Avah Bailey;Sick;2020-10-08T11:22:31;51,2116933880749;4,41231559544661
459;Nick Frost;Healthy;2020-09-30T02:20:35;51,2143963174633;4,40478944980161
460;Annika Bullock;Sick;2020-09-30T21:36:57;51,2134287997359;4,40657061142912
461;Angelique Turner;Healthy;2020-09-17T19:59:16;51,2141339772699;4,40438020183584
462;Vaughn Huffman;Healthy;2020-10-01T03:38:20;51,2179054342025;4,41174050397429
463;Jayvon Bernard;Sick;2020-09-17T16:22:17;51,2102629542862;4,41088952252244
464;Camryn Sanders;Healthy;2020-09-18T07:46:27;51,2149874175715;4,40313338986331
465;Genevieve Cannon;Sick;2020-09-25T14:56:00;51,2190990232783;4,40396634730176
466;Gianni Garcia;Healthy;2020-10-10T20:35:35;51,2145166928127;4,41135634359949
467;Christian Day;Sick;2020-09-28T00:01:50;51,2185236773246;4,4119451896313
468;Keshawn Beasley;Sick;2020-10-06T22:04:44;51,2150350215279;4,41225559048543
469;Coby Conrad;Sick;2020-10-08T11:40:57;51,2153526516231;4,41152733591679
470;Delilah Trevino;Healthy;2020-09-25T12:03:32;51,2141155806161;4,40460763014112
471;Lucian Mcpherson;Healthy;2020-09-20T08:30:17;51,2159109258757;4,40783315018734
472;Monique Conner;Healthy;2020-09-20T06:58:46;51,2201596168495;4,40644422460423
473;Daniella Benson;Sick;2020-10-07T13:52:57;51,2179458672807;4,40835674514434
474;Ayden Hodges;Sick;2020-09-20T11:11:06;51,2182771434766;4,40891461986858
475;Demarion Rush;Healthy;2020-09-19T22:47:51;51,2166573137918;4,41094049793341
476;Winston Hartman;Sick;2020-09-20T11:28:17;51,2104401448125;4,40942290674062
477;Yaretzi Schultz;Healthy;2020-09-16T22:36:04;51,2165765268533;4,40787507315449
478;Justice Sloan;Healthy;2020-09-14T14:39:12;51,210434055934;4,40584300080435
479;Brady Chen;Healthy;2020-09-24T03:00:50;51,2148949806535;4,40283079741099
480;Taryn Carter;Sick;2020-10-12T20:12:22;51,2194068967236;4,40813904784006
481;Randy Hogan;Healthy;2020-09-25T23:06:48;51,2155697756294;4,40729476085686
482;Kelvin Hutchinson;Sick;2020-10-01T06:34:04;51,2164334280096;4,40377889720793
483;Mario Palmer;Healthy;2020-10-09T04:50:59;51,2201119718785;4,41191575448029
484;Skyla Hardin;Healthy;2020-09-13T18:19:28;51,2148580302136;4,40736238840475
485;Ariana Wells;Sick;2020-09-19T03:19:30;51,2136470040891;4,4029589257576
486;Beckett Small;Sick;2020-10-08T08:57:16;51,2194297363245;4,40858581004669
487;Dominique Douglas;Sick;2020-10-09T19:00:15;51,2104875487252;4,41112661936534
488;Dayton Baird;Healthy;2020-09-22T18:50:15;51,2146456208799;4,40772287418913
489;Alberto Landry;Sick;2020-10-09T01:01:24;51,2194477483204;4,41229931153055
490;Sean Barrera;Healthy;2020-10-11T05:17:20;51,2152122273794;4,40717030375898
491;Reilly Sanford;Sick;2020-09-21T13:55:09;51,2159352461768;4,40535811264648
492;Jadon Rivers;Healthy;2020-09-15T17:20:32;51,2199456574361;4,40632657650144
493;Avery Boyle;Sick;2020-09-14T13:50:10;51,2111351192805;4,41095722964436
494;Giovani Meza;Healthy;2020-09-29T20:06:52;51,2142148072591;4,40311011845508
495;Kristopher Cabrera;Healthy;2020-10-06T17:02:51;51,2196504919248;4,40737602890889
496;Bailey Johnston;Healthy;2020-09-21T23:35:03;51,2178438659801;4,40630228205699
497;Beatrice Dickerson;Healthy;2020-09-27T22:44:52;51,2144215906724;4,40484326604103
498;Tyshawn Ayala;Sick;2020-10-01T16:43:37;51,2117416836487;4,4032974289451
499;Thalia Montes;Healthy;2020-09-20T14:43:00;51,2189985788882;4,40487706636039
500;Carmen Cowan;Sick;2020-09-21T18:49:15;51,2103847481288;4,40354988687536
501;Rik Van Bruggen;Healthy;2020-09-18T01:01:35;51,2155555192491;4,41149760869943
